module snippetbox.chaosfem.tw

go 1.21.4

require (
	github.com/alexedwards/scs/mysqlstore v0.0.0-20240203174419-a38e822451b6 // indirect
	github.com/alexedwards/scs/v2 v2.7.0 // indirect
	github.com/go-playground/form/v4 v4.2.1 // indirect
	github.com/go-sql-driver/mysql v1.7.1 // indirect
	github.com/julienschmidt/httprouter v1.3.0 // indirect
	github.com/justinas/alice v1.2.0 // indirect
	github.com/justinas/nosurf v1.1.1 // indirect
	golang.org/x/crypto v0.19.0 // indirect
)
